C51 COMPILER V9.53.0.0   FUNC                                                              12/13/2014 01:22:23 PAGE 1   


C51 COMPILER V9.53.0.0, COMPILATION OF MODULE FUNC
OBJECT MODULE PLACED IN func.OBJ
COMPILER INVOKED BY: C:\Program Files (x86)\Keil\C51\BIN\C51.EXE func.c OPTIMIZE(8,SPEED) BROWSE DEBUG OBJECTEXTEND TABS
                    -(2)

line level    source

   1          #include <reg51.h>
   2          
   3          extern unsigned int uidiv(unsigned int a, unsigned int b)
   4          {
   5   1        unsigned int result;
   6   1        result = a / b;
   7   1        return result;
   8   1      }


MODULE INFORMATION:   STATIC OVERLAYABLE
   CODE SIZE        =      4    ----
   CONSTANT SIZE    =   ----    ----
   XDATA SIZE       =   ----    ----
   PDATA SIZE       =   ----    ----
   DATA SIZE        =   ----    ----
   IDATA SIZE       =   ----    ----
   BIT SIZE         =   ----    ----
END OF MODULE INFORMATION.


C51 COMPILATION COMPLETE.  0 WARNING(S),  0 ERROR(S)
