C51 COMPILER V9.53.0.0   MAIN                                                              04/06/2015 16:54:57 PAGE 1   


C51 COMPILER V9.53.0.0, COMPILATION OF MODULE MAIN
OBJECT MODULE PLACED IN main.OBJ
COMPILER INVOKED BY: C:\Program Files (x86)\Keil\C51\BIN\C51.EXE main.c OPTIMIZE(8,SPEED) BROWSE DEBUG OBJECTEXTEND TABS
                    -(2)

line level    source

   1          #include <reg51.h>
   2          #include <intrins.h>  
   3          
   4          unsigned codeIndex, keyCode, digit, scale=0;   
   5          int sign = 1;
   6          char codes[10];       
   7          float number;     
   8          //-801
   9          unsigned char keyboard[] = {0xED, 0xDB, 0xE7, 0x77, 0xDE}; 
  10          //-801.9
  11          //unsigned char keyboard[] = {0xED, 0xDB, 0xE7, 0x77, 0xEB, 0xDD, 0xDE}; 
  12          unsigned char keyIndex;
  13          
  14          char scan(void)
  15          {           
  16   1          if(codeIndex==0)    //on scanning start 
  17   1          {
  18   2            number=0;   //initialize number
  19   2            scale=0;  
  20   2          }     
  21   1          //convert keyCode to digit
  22   1          switch (keyCode)    
  23   1          {    
  24   2            case 0x77:
  25   2              digit = '1';
  26   2              break;
  27   2            case 0x7B:
  28   2              digit = '2';
  29   2              break;
  30   2            case 0x7D:
  31   2              digit = '3';
  32   2              break;
  33   2            case 0xB7:
  34   2              digit = '4';
  35   2              break;
  36   2            case 0xBB:
  37   2              digit = '5';
  38   2              break;
  39   2            case 0xBD:
  40   2              digit = '6';
  41   2              break;
  42   2            case 0xD7:
  43   2              digit = '7';
  44   2              break;
  45   2            case 0xDB:
  46   2              digit = '8';
  47   2              break;
  48   2            case 0xDD:
  49   2              digit = '9';
  50   2              break;
  51   2            case 0xDE:
  52   2              digit = 'e';
  53   2              break;
  54   2            case 0xE7:
C51 COMPILER V9.53.0.0   MAIN                                                              04/06/2015 16:54:57 PAGE 2   

  55   2              digit = '0';
  56   2              break;
  57   2            case 0xEB:
  58   2              digit = ',';
  59   2              break;
  60   2            case 0xED:
  61   2              digit = '-';
  62   2              break;
  63   2             default: 
  64   2              digit=0xff;
  65   2              break;
  66   2          }    
  67   1          //check digit
  68   1          if(digit == 0xff) { return digit; }
  69   1          //starting scaling
  70   1          if(digit == ',')                       
  71   1          {
  72   2              scale = 1;
  73   2              codes[codeIndex++] = digit;
  74   2              codes[codeIndex] = 0;
  75   2              return digit;
  76   2          }
  77   1          if (digit == '-')
  78   1          {
  79   2            sign *= -1;
  80   2            return digit;
  81   2          }
  82   1          if(digit == 'e')    //finish 
  83   1          { 
  84   2              if (scale) { number = number / scale;}
  85   2              number *= sign;
  86   2              codeIndex = 0;
  87   2              scale = 0;
  88   2              keyIndex = 0;
  89   2          }    
  90   1          else
  91   1          {
  92   2              codes[codeIndex++] = digit;
  93   2              number = number*10 + (digit & 0xF);        
  94   2              if (scale) { scale *= 10; }
  95   2          } 
  96   1          return digit;    
  97   1      }
  98          
  99          void InterruptHanlder(void) interrupt 0
 100          {
 101   1          keyCode = keyboard[keyIndex++];
 102   1          if( (keyCode & 0xF0) != 0xF0 & (keyCode & 0x0F) != 0x0F)
 103   1          {
 104   2              scan();     //scan digit
 105   2              IE0  = 0;
 106   2          }
 107   1      }
 108          
 109          main ()
 110          { 
 111   1          IT0 = 1;   // Configure interrupt 0 for falling edge on /INT0 (P3.2)
 112   1          EX0 = 1;   // Enable EX0 Interrupt
 113   1          EA = 1;    // Enable Global Interrupt Flag
 114   1          keyIndex = 0;
 115   1          //we will be together forever
 116   1          while (1)
C51 COMPILER V9.53.0.0   MAIN                                                              04/06/2015 16:54:57 PAGE 3   

 117   1          {
 118   2          }
 119   1      }


MODULE INFORMATION:   STATIC OVERLAYABLE
   CODE SIZE        =    587    ----
   CONSTANT SIZE    =   ----    ----
   XDATA SIZE       =   ----    ----
   PDATA SIZE       =   ----    ----
   DATA SIZE        =     30    ----
   IDATA SIZE       =   ----    ----
   BIT SIZE         =   ----    ----
END OF MODULE INFORMATION.


C51 COMPILATION COMPLETE.  0 WARNING(S),  0 ERROR(S)
