C51 COMPILER V9.53.0.0   TASK2                                                             03/23/2015 16:37:13 PAGE 1   


C51 COMPILER V9.53.0.0, COMPILATION OF MODULE TASK2
OBJECT MODULE PLACED IN task2.OBJ
COMPILER INVOKED BY: C:\Program Files (x86)\Keil\C51\BIN\C51.EXE task2.c OPTIMIZE(8,SPEED) BROWSE DEBUG OBJECTEXTEND TAB
                    -S(2)

line level    source

   1          #include <reg51.h>
   2          
   3          unsigned    char sec;   
   4          unsigned   int count=0;
   5            int oldCount = 0;
   6            int time;
   7            int prevValue;
   8            int can;
   9            
  10          #define DONE 0
  11          #define NOT_DONE 1
  12          
  13          intt0 (void) interrupt 1
  14          {
  15   1        can = NOT_DONE;
  16   1      }
  17          
  18          int CalculateTime()
  19          {
  20   1        if (prevValue > TL0) { prevValue = 0;}
  21   1        time += TL0 - prevValue;
  22   1      //  if (prevValue == TL0) {return DONE;}
  23   1      //  else
  24   1        {
  25   2          prevValue = TL0;
  26   2        }
  27   1        return NOT_DONE;
  28   1      }
  29            
  30          main()
  31          { 
  32   1        TMOD=9; //16-bit mode for TIMER0 in GATE mode     
  33   1        ET0=1;      
  34   1        TR0=1;      
  35   1        EA=1;
  36   1        time = 0; 
  37   1        while(can) 
  38   1        {
  39   2          CalculateTime();
  40   2          P1= time;
  41   2          can = DONE;
  42   2        }
  43   1      }
*** WARNING C290 IN LINE 43 OF task2.c: missing return value


MODULE INFORMATION:   STATIC OVERLAYABLE
   CODE SIZE        =     93    ----
   CONSTANT SIZE    =   ----    ----
   XDATA SIZE       =   ----    ----
   PDATA SIZE       =   ----    ----
   DATA SIZE        =     11    ----
   IDATA SIZE       =   ----    ----
   BIT SIZE         =   ----    ----
C51 COMPILER V9.53.0.0   TASK2                                                             03/23/2015 16:37:13 PAGE 2   

END OF MODULE INFORMATION.


C51 COMPILATION COMPLETE.  1 WARNING(S),  0 ERROR(S)
